%YAML 1.1
%TAG !u! tag:unity3d.com,2011:
--- !u!1045 &1
EditorBuildSettings:
  m_ObjectHideFlags: 0
  serializedVersion: 2
  m_Scenes:
  - enabled: 1
    path: Assets/game.unity
    guid: f38ce3996aa69cc03921fef6cfd9a6e5
  m_configObjects: {}
